5 Continuous-continuous relationships | Data Visualization
…
It’s now possible to determine the populations of the smaller countries, as well as distinguish them from one another.

Log scales are also useful for data that follow a power law. You’ll find examples of power law relationships in many different domains. One common example is word frequencies. Say you count the number of times each word appears in some text, then assign each word a ranking based on this frequency. For many collections of text, the frequency of each word is inversely proportional to its rank, and this relationship follows a power law.

For example, war_and_peace contains frequencies and ranks for every word used in Leo Tolstoy’s War and Peace.

war_and_peace
#> # A tibble: 18,087 x 3
#>   word   freq  rank
#>   <chr> <int> <int>
#> 1 the   34549     1
#> 2 and   22232     2
#> 3 to    16675     3
#> 4 of    14889     4
#> 5 a     10522     5
#> 6 he     9872     6
#> # … with 18,081 more rows
…
5.3 Two continuous variables

gm_combined is a subset of the Gapminder data and is included in the dcldata package. It includes data on population, per capita GDP, and life expectancy for 183 countries from every five years, starting in 1950 and ending in 2015.

gm_combined 
#> # A tibble: 2,562 x 7
#>   iso_a3 name        region  year population gdp_per_capita life_expectancy
#>   <chr>  <chr>       <chr>  <dbl>      <dbl>          <dbl>           <dbl>
#> 1 afg    Afghanistan Asia    1950    7752118           1040            32.0
#> 2 afg    Afghanistan Asia    1955    8270581           1131            35.1
#> 3 afg    Afghanistan Asia    1960    8996351           1213            38.6
#> 4 afg    Afghanistan Asia    1965    9938414           1190            42.2
#> 5 afg    Afghanistan Asia    1970   11126123           1183            45.8
#> 6 afg    Afghanistan Asia    1975   12590286           1211            46.3
#> # … with 2,556 more rows
…
In the Gapminder data, we might want to understand how life expectancy changed from 2010 to 2015 for each country. This data is paired. The same metric (life expectancy) was measured twice at two different points.

To get the data into a form that is easy to visualize, we’ll need to use pivot_wider().

gm_combined_paired <-
  gm_combined_2010_2015 %>%  
  select(iso_a3, name, region, year, life_expectancy) %>% 
  pivot_wider(
    names_from = year,
    names_prefix = "year_",
    values_from = life_expectancy
  )

gm_combined_paired 
#> # A tibble: 183 x 5
#>   iso_a3 name                region   year_2010 year_2015
#>   <chr>  <chr>               <chr>        <dbl>     <dbl>
#> 1 afg    Afghanistan         Asia          56.2      57.9
#> 2 alb    Albania             Europe        76.3      77.6
#> 3 dza    Algeria             Africa        76.6      77.3
#> 4 ago    Angola              Africa        60.1      64  
#> 5 atg    Antigua and Barbuda Americas      76.8      77.2
#> 6 arg    Argentina           Americas      75.8      76.5
#> # … with 177 more rows
…
You can now see that many countries in Africa have relatively low life expectancies, but made some of the largest absolute gains between 2010 and 2015.

Encoding both year_2010 and year_2015 with position make it difficult to estimate the exact change in life expectancy for a given country. If our goal is to communicate or understand these exact changes, we should create a new variable.

gm_combined_paired %>% 
  mutate(diff = year_2015 - year_2010)
#> # A tibble: 183 x 6
#>   iso_a3 name                region   year_2010 year_2015  diff
#>   <chr>  <chr>               <chr>        <dbl>     <dbl> <dbl>
#> 1 afg    Afghanistan         Asia          56.2      57.9 1.70 
#> 2 alb    Albania             Europe        76.3      77.6 1.25 
#> 3 dza    Algeria             Africa        76.6      77.3 0.730
#> 4 ago    Angola              Africa        60.1      64   3.92 
#> 5 atg    Antigua and Barbuda Americas      76.8      77.2 0.370
#> 6 arg    Argentina           Americas      75.8      76.5 0.720
#> # … with 177 more rows
…
