2 Discrete-continuous relationships | Data Visualization
…
The above plot no longer looks like a star. Instead of just zooming in, we’ve changed what’s plotted. Therefore, to zoom, we recommend using the xlim and ylim arguments of coord_cartesian() and coord_fixed() instead of other methods that delete data before plotting.

2.3 One discrete category

In this section, we’ll use data collected by the American Community Survey (ACS) on languages spoken at home across the U.S. dcldata::languages_states contains data from the 2013 ACS on the number of at-home speakers of non-English speakers by state.

We’ve filtered languages_states to focus on the top 20 languages spoken in Utah, besides English and Spanish. We’ll use this tibble, utah_languages, for the rest of the chapter.

utah_languages <-
  languages_states %>% 
  filter(state == "Utah", language != "Spanish") %>%
  slice_max(speakers, n = 20)

utah_languages
#> # A tibble: 20 x 3
#>   state language   speakers
#>   <chr> <chr>         <int>
#> 1 Utah  German         9025
#> 2 Utah  Navajo         8193
#> 3 Utah  Chinese        7625
#> 4 Utah  Portuguese     7150
#> 5 Utah  French         6645
#> 6 Utah  Vietnamese     6355
#> # … with 14 more rows
…
It’s now effortless to connect a bar with a label.

Comparing numbers of speakers across languages, however, is still difficult. We can make these comparisons much easier by ordering the languages by number of speakers.

utah_languages
#> # A tibble: 20 x 3
#>   state language   speakers
#>   <chr> <chr>         <int>
#> 1 Utah  German         9025
#> 2 Utah  Navajo         8193
#> 3 Utah  Chinese        7625
#> 4 Utah  Portuguese     7150
#> 5 Utah  French         6645
#> 6 Utah  Vietnamese     6355
#> # … with 14 more rows

Notice that the languages in utah_languages appear in order of descending speakers, but, in the plot, they appear in alphabetical order. ggplot2 plots character variables in alphabetical order from bottom to top, disregarding row order. You have to change a character variable to a factor if you want ggplot2 to plot the variable in an order other than alphabetical.

A factor is a categorical variable with a fixed number of values, called levels. If you want to read more about factors, see the Factors chapter from R4DS.

To order language by number of speakers, we’ll first turn language into a factor with levels ordered by number of speakers. The function fct_reorder() can do this for us.

df <-  
  utah_languages %>% 
  mutate(language = fct_reorder(language, speakers))

df
#> # A tibble: 20 x 3
#>   state language   speakers
#>   <chr> <fct>         <int>
#> 1 Utah  German         9025
#> 2 Utah  Navajo         8193
#> 3 Utah  Chinese        7625
#> 4 Utah  Portuguese     7150
#> 5 Utah  French         6645
#> 6 Utah  Vietnamese     6355
#> # … with 14 more rows
…
