4 Distributions | Data Visualization
…
Setting hjust to 0 aligns text to the left, which causes our labels to move closer to x-axis. hjust = 1 aligns text right.

You’ll learn about the other element functions, and other useful theme() changes, later on.

4.3 One distribution

In this section, we’ll use data on Congress members serving in 2019.

congress
#> # A tibble: 535 x 7
#>   name            state division           chamber party        age gender
#>   <chr>           <chr> <chr>              <chr>   <chr>      <dbl> <chr> 
#> 1 Don Young       AK    Pacific            House   Republican  85.6 M     
#> 2 Lisa Murkowski  AK    Pacific            Senate  Republican  61.6 F     
#> 3 Dan Sullivan    AK    Pacific            Senate  Republican  54.2 M     
#> 4 Terri Sewell    AL    East South Central House   Democrat    54.0 F     
#> 5 Robert Aderholt AL    East South Central House   Republican  53.5 M     
#> 6 Mo Brooks       AL    East South Central House   Republican  64.7 M     
#> # … with 529 more rows
…
