3 General strategy | Data Visualization
…
3.1 The goals of visualization

3.1.1 Two types of plots

buildings contains data on some of the tallest buildings in the world. buildings_10 includes just the 10 tallest.

buildings_10 <-
  buildings %>% 
  slice_max(height, n = 10)

You might be curious to know which buildings are the tallest and how tall they are.

buildings_10
#> # A tibble: 10 x 6
#>   building                  city         country             height floors  year
#>   <chr>                     <chr>        <chr>                <dbl>  <dbl> <dbl>
#> 1 Burj Khalifa              Dubai        United Arab Emirat…   2717    163  2010
#> 2 Shanghai Tower            Shanghai     China                 2073    128  2015
#> 3 Abraj Al-Bait Clock Tower Mecca        Saudi Arabia          1971    120  2012
#> 4 Ping An Finance Center    Shenzhen     China                 1965    115  2017
#> 5 Lotte World Tower         Seoul        South Korea           1819    123  2016
#> 6 One World Trade Center    New York Ci… United States         1776     94  2014
#> # … with 4 more rows
…
The purpose of an EDA plot is different from the purpose of a presentation plot. You construct EDA plots for yourself to help you answer questions. Before you run your ggplot2 code, you won’t know what the plot will tell you. EDA plots are also meant to be quick, and you don’t need to worry about perfecting details. You create presentation plots for others. The purpose of a presentation plot is to transfer an idea about the data from your own mind to the minds of others as effectively as possible. Where EDA plots are quick, presentation plots are slow. Clear and focused visualizations take time and lots of iteration.

3.1.2 Encoding and decoding

Data is not visual by default. Our buildings_10 data is just a collection of associated values.

buildings_10
#> # A tibble: 10 x 6
#>   building              city        country          height_ft floors year 
#>   <chr>                 <chr>       <chr>                <dbl>  <int> <chr>
#> 1 Burj Khalifa          Dubai       United Arab Emi…      2717    163 2010 
#> 2 Shanghai Tower        Shanghai    China                 2073    128 2015 
#> 3 Abraj Al-Bait Clock … Mecca       Saudi Arabia          1971    120 2012 
#> 4 Ping An Finance Cent… Shenzhen    China                 1965    115 2017 
#> 5 Lotte World Tower     Seoul       South Korea           1819    123 2016 
#> 6 One World Trade Cent… New York C… United States         1776    104 2014 
#> # … with 4 more rows
…
