6 Time series | Data Visualization
…
The lubridate package is a helpful tool for working with dates. We’ll use some lubridate functions throughout the chapter. Take a look at the lubridate cheat sheet if you’re not already familiar with the package.

Not all time series are alike. In some situations, you’ll be interested in a long-term trend, but in others you’ll want to highlight short-term changes or even just individual values. In this chapter, we’ll cover various strategies for dealing with these different scenarios.

First, we’ll talk about the mechanics of date scales, which are useful for time series.

6.1 Mechanics

6.1.1 Date/time scales

Sometimes, your time series data will include detailed date or time information stored as a date, time, or date-time. For example, the nycflights13::flights variable time_hour is a date-time.

nycflights13::flights %>% 
  select(time_hour)
#> # A tibble: 336,776 × 1
#>   time_hour          
#>   <dttm>             
#> 1 2013-01-01 05:00:00
#> 2 2013-01-01 05:00:00
#> 3 2013-01-01 05:00:00
#> 4 2013-01-01 05:00:00
#> 5 2013-01-01 06:00:00
#> 6 2013-01-01 05:00:00
#> # ℹ 336,770 more rows

When you map time_hour to an aesthetic, ggplot2 uses scale_*_datetime(), the scale function for date-times. There is also scale_*_date() for dates and scale_*_time() for times. The date- and time-specific scale functions are useful because they create meaningful breaks and labels.

flights_0101_0102 contains data on the number of flights per hour on January 1st and January 2nd, 2013.

flights_0101_0102 <-
  nycflights13::flights %>% 
  filter(month == 1, day <= 2) %>% 
  group_by(time_hour = floor_date(time_hour, "hour")) %>% 
  summarize(num_flights = n())

flights_0101_0102
#> # A tibble: 38 × 2
#>   time_hour           num_flights
#>   <dttm>                    <int>
#> 1 2013-01-01 05:00:00           6
#> 2 2013-01-01 06:00:00          52
#> 3 2013-01-01 07:00:00          49
#> 4 2013-01-01 08:00:00          58
#> 5 2013-01-01 09:00:00          56
#> 6 2013-01-01 10:00:00          39
#> # ℹ 32 more rows
…
6.2 Trends

6.2.1 One response variable

gm_combined is the same Gapminder data you saw in the previous chapter. Previously, we investigated how life expectancy is associated with per capita GDP. Now, we’ll ask a more obvious question: how has life expectancy changed over time?

gm_combined
#> # A tibble: 2,562 × 7
#>   iso_a3 name        region  year population gdp_per_capita life_expectancy
#>   <chr>  <chr>       <chr>  <dbl>      <dbl>          <dbl>           <dbl>
#> 1 afg    Afghanistan Asia    1950    7752118           1040            32.0
#> 2 afg    Afghanistan Asia    1955    8270581           1131            35.1
#> 3 afg    Afghanistan Asia    1960    8996351           1213            38.6
#> 4 afg    Afghanistan Asia    1965    9938414           1190            42.2
#> 5 afg    Afghanistan Asia    1970   11126123           1183            45.8
#> 6 afg    Afghanistan Asia    1975   12590286           1211            46.3
#> # ℹ 2,556 more rows
…
In this case, there’s no long-term trend we’re interested in. Instead, we want to understand short-term fluctuations, and we care about individual values. In these situations, geom_col() and geom_segment() are good options.

6.4 Individual values

Sometimes, you’ll want to display time on the x-axis like a time series, but you won’t actually care about displaying any kind of trend.

The famines dataset from dcldata tracks major famines across time.

famines
#> # A tibble: 77 × 6
#>   location   iso_a3 region year_start year_end deaths_estimate
#>   <chr>      <chr>  <chr>       <dbl>    <dbl>           <dbl>
#> 1 Ireland    irl    Europe       1846     1852         1000000
#> 2 India      ind    Asia         1860     1861         2000000
#> 3 Cape Verde cpv    Africa       1863     1867           30000
#> 4 India      ind    Asia         1866     1867          961043
#> 5 Finland    fin    Europe       1868     1868          100000
#> 6 India      ind    Asia         1868     1870         1500000
#> # ℹ 71 more rows
…
